[
    {
        "cash": 0,
        "stocks": [
            {
                "type": "OK4U",
                "numberOfShares": 100,
                "costPerShare": 30
            },
            {
                "type": "MYT4U",
                "numberOfShares": 100,
                "costPerShare": 20
            }
        ]
    },
    {
        "cash": 0,
        "stocks": [
            {
                "type": "OK4U",
                "numberOfShares": 200,
                "costPerShare": 50
            },
            {
                "type": "MYT4U",
                "numberOfShares": 700,
                "costPerShare": 40
            }
        ]
    },
    {
        "cash": 0,
        "stocks": [
            {
                "type": "OK4U",
                "numberOfShares": 300,
                "costPerShare": 20
            }
        ],
        "realEstates": [
            {
                "type": "plex",
                "units": 2,
                "downPay": 8000,
                "cost": 64000,
                "mortgage": 56000,
                "cashFlow": 300
            }
        ]
    },
    {
        "cash": 2000,
        "realEstates": [
            {
                "type": "plex",
                "units": 4,
                "downPay": 17000,
                "cost": 90000,
                "mortgage": 73000,
                "cashFlow": 320
            }
        ]
    },
    {
        "cash": 3000,
        "stocks": [
            {
                "type": "OK4U",
                "numberOfShares": 100,
                "costPerShare": 10
            },
            {
                "type": "MYT4U",
                "numberOfShares": 100,
                "costPerShare": 5
            }
        ]
    },
    {
        "cash": 3000,
        "realEstates": [
            {
                "type": "plex",
                "units": 4,
                "downPay": 20000,
                "cost": 110000,
                "mortgage": 90000,
                "cashFlow": 330
            }
        ]

    },
    {
        "cash": 5000,
        "stocks": [
            {
                "type": "MYT4U",
                "numberOfShares": 300,
                "costPerShare": 15
            }
        ],
        "realEstates": [
            {
                "type": "plex",
                "units": 2,
                "downPay": 7000,
                "cost": 56000,
                "mortgage": 49000,
                "cashFlow": 210
            }
        ]
    },
    {
        "cash": 8000,
        "realEstates": [
            {
                "type": "Vacant Land",
                "units": 10,
                "downPay": 20000,
                "cost": 20000,
                "mortgage": 0,
                "cashFlow": 0
            }
        ]
    },
    {
        "cash": 3000,
        "stocks": [
            {
                "type": "OK4U",
                "numberOfShares": 500,
                "costPerShare": 15
            }
        ],
        "realEstates": [
            {
                "type": "plex",
                "units": 2,
                "downPay": 3000,
                "cost": 48000,
                "mortgage": 45000,
                "cashFlow": 100
            }
        ]
    },
    {
        "cash": 10000,
        "stocks": [
            {
                "type": "MYT4U",
                "numberOfShares": 100,
                "costPerShare": 20
            }
        ]
    },
    {
        "cash": 12000,
        "stocks": [
            {
                "type": "OK4U",
                "numberOfShares": 400,
                "costPerShare": 15
            }
        ],
        "realEstates": [
            {
                "type": "plex",
                "units": 2,
                "downPay": 4000,
                "cost": 46000,
                "mortgage": 42000,
                "cashFlow": 120
            }
        ]
    },
    {
        "cash": 23000
    }
]