[
  {
    "cashflowVersion": "101",
    "title": "Buy Big Screen TV",
    "type": "buy_tv",
    "payAmount": 4000,
    "mortgage": 4000,
    "monthlyExpenses": 120
  },
  {
    "cashflowVersion": "101",
    "title": "New Boat!",
    "type": "new_boat",
    "payAmount": 1000,
    "liability": {
      "type": "Boat",
      "mortgage": 17000,
      "monthlyExpenses": 340
    }
  },
  {
    "cashflowVersion": "101",
    "title": "Family Vacation!",
    "payAmount": 2000
  },
  {
    "cashflowVersion": "101",
    "title": "Buy New Fishing Rod",
    "payAmount": 100
  },
  {
    "cashflowVersion": "101",
    "title": "Couldn't Resist New Painting By Local Artist",
    "payAmount": 200
  },
  {
    "cashflowVersion": "101",
    "title": "Buy New Bowling Ball",
    "payAmount": 80
  },
  {
    "cashflowVersion": "101",
    "title": "Buy New Cullular Phone",
    "payAmount": 100
  },
  {
    "cashflowVersion": "101",
    "title": "Play Your Lucky Lottery Number!",
    "payAmount": 100
  },
  {
    "cashflowVersion": "101",
    "title": "Repaint House",
    "payAmount": 600
  },
  {
    "cashflowVersion": "101",
    "title": "Shopping!",
    "payAmount": 350
  },
  {
    "cashflowVersion": "101",
    "title": "Go to the Air Show",
    "payAmount": 120
  },
  {
    "cashflowVersion": "101",
    "title": "Buy New Music CDs",
    "payAmount": 100
  },
  {
    "cashflowVersion": "101",
    "title": "Go to Casino!",
    "payAmount": 200
  },
  {
    "cashflowVersion": "101",
    "title": "Furniture Sale",
    "payAmount": 300
  },
  {
    "cashflowVersion": "101",
    "title": "Car's Air Conditioning Dies",
    "payAmount": 700
  },
  {
    "cashflowVersion": "101",
    "title": "Buy Cappucino Machine",
    "payAmount": 150
  },
  {
    "cashflowVersion": "101",
    "title": "Water Heater Leaks",
    "payAmount": 450
  },
  {
    "cashflowVersion": "101",
    "title": "Buy New Speakers for Stereo",
    "payAmount": 500
  },
  {
    "cashflowVersion": "101",
    "title": "Must Have New Sunglasses",
    "payAmount": 75
  },
  {
    "cashflowVersion": "101",
    "title": "Your Anniversary!",
    "payAmount": 200
  },
  {
    "cashflowVersion": "101",
    "title": "Go to a Concert!",
    "payAmount": 180
  },
  {
    "cashflowVersion": "101",
    "title": "Shopping Spree!",
    "payAmount": 150
  },
  {
    "cashflowVersion": "101",
    "title": "Go Out to Diner",
    "payAmount": 80
  },
  {
    "cashflowVersion": "101",
    "title": "Rumor of Layoff",
    "payAmount": 220
  },
  {
    "cashflowVersion": "101",
    "title": "High School Reunion",
    "payAmount": 250
  },
  {
    "cashflowVersion": "101",
    "title": "Park in Handicapped Zone",
    "payAmount": 100
  },
  {
    "cashflowVersion": "101",
    "title": "Buy a Food Processor",
    "payAmount": 150
  },
  {
    "cashflowVersion": "101",
    "title": "Tax Audit",
    "payAmount": 350
  },
  {
    "cashflowVersion": "101",
    "title": "Buy New Clothes",
    "payAmount": 250
  },
  {
    "cashflowVersion": "101",
    "title": "Go to Ball Game",
    "payAmount": 50
  },
  {
    "cashflowVersion": "101",
    "title": "Play 2 Rounds of Golf",
    "payAmount": 100
  },
  {
    "cashflowVersion": "101",
    "title": "Car Needs Tires",
    "payAmount": 300
  },
  {
    "cashflowVersion": "101",
    "title": "Lunch with Friends",
    "payAmount": 450
  },
  {
    "cashflowVersion": "101",
    "title": "Visit Dentist",
    "payAmount": 100
  },
  {
    "cashflowVersion": "101",
    "title": "Buy a Cafe Latte & Cappaccino for You & a Friend",
    "payAmount": 10
  },
  {
    "cashflowVersion": "101",
    "title": "Buy New Tennis Racket",
    "payAmount": 200
  },
  {
    "cashflowVersion": "101",
    "title": "Buy New Golf Balls",
    "payAmount": 20
  },
  {
    "cashflowVersion": "101",
    "title": "Son's Colledge Tuition",
    "payAmount": 1500,
    "type": "ifchild"
  },
  {
    "cashflowVersion": "101",
    "title": "Your Daughter's Wedding",
    "payAmount": 2000,
    "type": "ifchild"
  },
  {
    "cashflowVersion": "101",
    "title": "Your Child Needs Braces",
    "payAmount": 2000,
    "type": "ifchild"
  },
  {
    "cashflowVersion": "101",
    "title": "Birthday!",
    "payAmount": 100,
    "type": "ifchild"
  },
  {
    "cashflowVersion": "101",
    "title": "Buy Toys for Your Kids",
    "payAmount": 50,
    "type": "perchild"
  },
  {
    "cashflowVersion": "202",
    "title": "A Little Extra Work Pays Off",
    "payAmount": -5000
  },
  {
    "cashflowVersion": "202",
    "title": "Tax audit",
    "payAmount": 15000
  },
  {
    "cashflowVersion": "202",
    "title": "You Can't Say 'No'",
    "payAmount": 20
  },
  {
    "cashflowVersion": "202",
    "title": "Your Golf Game Needs Work",
    "payAmount": 500
  },
  {
    "cashflowVersion": "202",
    "title": "Take a Coffee Break",
    "payAmount": 10
  },
  {
    "cashflowVersion": "202",
    "title": "Can't Sleep!",
    "payAmount": 100
  },
  {
    "cashflowVersion": "202",
    "title": "Subscribe to Investor Newspaper",
    "otherExpenses": 20
  },
  {
    "cashflowVersion": "202",
    "title": "Purchase a Cell Phone",
    "otherExpenses": 100
  },
  {
    "cashflowVersion": "202",
    "title": "You're Over-stressed",
    "otherExpenses": 30
  },
  {
    "cashflowVersion": "202",
    "title": "Add an Office onto Your Home",
    "otherExpenses": 750
  },
  {
    "cashflowVersion": "202",
    "title": "Hire Maid Service",
    "otherExpenses": 200
  },
  {
    "cashflowVersion": "202",
    "title": "Time to Upgrade Your Vehicle",
    "otherExpenses": 500
  },
  {
    "cashflowVersion": "202",
    "title": "School Reunion in 3 Months",
    "otherExpenses": 80
  },
  {
    "cashflowVersion": "202",
    "title": "Your Credit is Excellent",
    "otherExpenses": 1000
  },
  {
    "cashflowVersion": "202",
    "title": "You Go High Tech!",
    "otherExpenses": 150
  },
  {
    "cashflowVersion": "202",
    "title": "Join the Boss' Country Club",
    "payAmount": 20000,
    "otherExpenses": 400
  },
  {
    "cashflowVersion": "202",
    "title": "Consult with Asset Propection Expert",
    "type": "pasinc500",
    "payAmount": 3000
  },
  {
    "cashflowVersion": "202",
    "title": "Better Than TV",
    "payAmount": 50,
    "type": "perchild"
  },
  {
    "cashflowVersion": "202",
    "title": "Hire a Tutor",
    "otherExpenses": 200,
    "type": "ifchild"
  },
  {
    "cashflowVersion": "202",
    "title": "Buy the Kids a Dog",
    "payAmount": 500,
    "otherExpenses": 100,
    "type": "ifchild"
  },
  {
    "cashflowVersion": "202",
    "title": "Your Child Goes To University",
    "type": "child_university",    
    "payAmount": 50000,
    "schoolLoans": 50000,
    "schoolLoanPayment": 1000
  },
  {
    "cashflowVersion": "202",
    "title": "Oldest Child Needs a Car",
    "type": "child_car",    
    "payAmount": 3000,
    "carLoans": 5000,
    "carPayment": 250,
    "otherExpenses": 150
  },
  {
    "cashflowVersion": "202",
    "title": "Backyard Fun!",
    "type": "backyard_fun",    
    "payAmount": 12000,
    "otherExpenses": 140,
    "liability": {
      "type": "Swimming Pool & Jacuzzi",
      "mortgage": 20000,
      "monthlyExpenses": 260
    }
  },
  {
    "cashflowVersion": "202",
    "title": "A Vacation Retreat",
    "type": "vacation_retreat",    
    "payAmount": 25000,
    "liability": {
      "type": "Vacation Retreat",
      "mortgage": 50000,
      "monthlyExpenses": 500
    }
  }
]
