[
    {
        "title": "Family Restaurant Chain",
        "type": "business",
        "cashFlow": 14000,
        "down": 300000
    },
    {
        "title": "Burger Franchise",
        "type": "business",
        "cashFlow": 9500,
        "down": 300000
    },
    {
        "title": "Quick Food Marts",
        "type": "business",
        "cashFlow": 5000,
        "down": 120000
    },
    {
        "title": "Heat & A/C Service",
        "type": "business",
        "cashFlow": 10000,
        "down": 200000
    },
    {
        "title": "Truck Parts Maker",
        "type": "business",
        "cashFlow": 5000,
        "down": 150000
    },
    {
        "title": "Buy A Gold Mine",
        "cashFlow": 25000,
        "down": 150000
    },
    {
        "title": "Chicken Franchise",
        "type": "business",
        "cashFlow": 10000,
        "down": 300000
    },
    {
        "title": "Beauty Salons",
        "type": "business",
        "cashFlow": 10000,
        "down": 250000
    },
    {
        "title": "Auto Repair Shop",
        "type": "business",
        "cashFlow": 6000,
        "down": 150000
    },
    {
        "title": "Russian Oil Deal",
        "cashFlow": 75000,
        "down": 300000
    },
    {
        "title": "T-Shirt Stores",
        "type": "business",
        "cashFlow": 8000,
        "down": 200000
    },
    {
        "title": "Software Co. IPO",
        "cashWon": 500000,
        "down": 25000
    },
    {
        "title": "60 Unit Apartement Building",
        "type": "business",
        "cashFlow": 8000,
        "down": 300000
    },
    {
        "title": "Pizza Franchise",
        "type": "business",
        "cashFlow": 7000,
        "down": 225000
    },
    {
        "title": "200 Unit Mini Storage",
        "type": "business",
        "cashFlow": 6000,
        "down": 200000
    },
    {
        "title": "Bio-Tech Co. IPO",
        "cashWon": 500000,
        "down": 50000
    },
    {
        "title": "Dry Cleaner",
        "type": "business",
        "cashFlow": 3000,
        "down": 100000
    },
    {
        "title": "Cookware Infomercial",
        "cashFlow": 50000,
        "down": 225000
    }
]